Unit 2 Project
…
The penguins_dup dataset has 363 rows, after removing the exact
duplicates using distinct(), there are 333 rows. Duplicates can mess up
summary statistics and plots because they can inflate the sample size,
and thereby bias averages and proportions, ultimately impacting the
overall trend.

#Q3

penguins_q3 <- penguins_clean %>%
  select(species, island, sex, where(is.numeric))

penguins_q3

## # A tibble: 333 × 8
##    species island    sex    bill_length_mm bill_depth_mm flipper_length_mm
##    <fct>   <fct>     <fct>           <dbl>         <dbl>             <int>
##  1 Adelie  Torgersen male             39.1          18.7               181
##  2 Adelie  Torgersen female           39.5          17.4               186
##  3 Adelie  Torgersen female           40.3          18                 195
##  4 Adelie  Torgersen female           36.7          19.3               193
##  5 Adelie  Torgersen male             39.3          20.6               190
##  6 Adelie  Torgersen female           38.9          17.8               181
##  7 Adelie  Torgersen male             39.2          19.6               195
##  8 Adelie  Torgersen female           41.1          17.6               182
##  9 Adelie  Torgersen male             38.6          21.2               191
## 10 Adelie  Torgersen male             34.6          21.1               198
## # ℹ 323 more rows
## # ℹ 2 more variables: body_mass_g <int>, year <int>

ncol(penguins_q3)

## [1] 8

There are 8 columns in the resulting dataframe.

#Q4

penguins_clean %>%
  select(starts_with("bill"))

## # A tibble: 333 × 2
##    bill_length_mm bill_depth_mm
##             <dbl>         <dbl>
##  1           39.1          18.7
##  2           39.5          17.4
##  3           40.3          18  
##  4           36.7          19.3
##  5           39.3          20.6
##  6           38.9          17.8
##  7           39.2          19.6
##  8           41.1          17.6
##  9           38.6          21.2
## 10           34.6          21.1
## # ℹ 323 more rows

penguins_clean %>%
  select(ends_with("_mm"))

## # A tibble: 333 × 3
##    bill_length_mm bill_depth_mm flipper_length_mm
##             <dbl>         <dbl>             <int>
##  1           39.1          18.7               181
##  2           39.5          17.4               186
##  3           40.3          18                 195
##  4           36.7          19.3               193
##  5           39.3          20.6               190
##  6           38.9          17.8               181
##  7           39.2          19.6               195
##  8           41.1          17.6               182
##  9           38.6          21.2               191
## 10           34.6          21.1               198
## # ℹ 323 more rows

penguins_clean %>%
  select(matches("bill|flipper"))

## # A tibble: 333 × 3
##    bill_length_mm bill_depth_mm flipper_length_mm
##             <dbl>         <dbl>             <int>
##  1           39.1          18.7               181
##  2           39.5          17.4               186
##  3           40.3          18                 195
##  4           36.7          19.3               193
##  5           39.3          20.6               190
##  6           38.9          17.8               181
##  7           39.2          19.6               195
##  8           41.1          17.6               182
##  9           38.6          21.2               191
## 10           34.6          21.1               198
## # ℹ 323 more rows
…
